/home/shafeekpm/Videos/Sep14_AWS_v1.0_NewStack_Upgradation/LoRaWAN_End_Node/Utilities/misc/stm32_mem.c:32:6:UTIL_MEM_cpy_8	8	static
/home/shafeekpm/Videos/Sep14_AWS_v1.0_NewStack_Upgradation/LoRaWAN_End_Node/Utilities/misc/stm32_mem.c:43:6:UTIL_MEM_cpyr_8	12	static
/home/shafeekpm/Videos/Sep14_AWS_v1.0_NewStack_Upgradation/LoRaWAN_End_Node/Utilities/misc/stm32_mem.c:55:6:UTIL_MEM_set_8	8	static
