/home/shafeekpm/Videos/Sep14_AWS_v1.0_NewStack_Upgradation/LoRaWAN_End_Node/Middlewares/Third_Party/LoRaWAN/LmHandler/NvmDataMgmt.c:52:6:NvmDataMgmtEvent	0	static
/home/shafeekpm/Videos/Sep14_AWS_v1.0_NewStack_Upgradation/LoRaWAN_End_Node/Middlewares/Third_Party/LoRaWAN/LmHandler/NvmDataMgmt.c:59:10:NvmDataMgmtStore	0	static
/home/shafeekpm/Videos/Sep14_AWS_v1.0_NewStack_Upgradation/LoRaWAN_End_Node/Middlewares/Third_Party/LoRaWAN/LmHandler/NvmDataMgmt.c:154:10:NvmDataMgmtRestore	0	static
/home/shafeekpm/Videos/Sep14_AWS_v1.0_NewStack_Upgradation/LoRaWAN_End_Node/Middlewares/Third_Party/LoRaWAN/LmHandler/NvmDataMgmt.c:221:6:NvmDataMgmtFactoryReset	0	static
