/home/shafeekpm/Videos/Sep14_AWS_v1.0_NewStack_Upgradation/LoRaWAN_End_Node/Middlewares/Third_Party/LoRaWAN/Crypto/soft-se.c:600:23:SecureElementGetKeyByID	20	static
/home/shafeekpm/Videos/Sep14_AWS_v1.0_NewStack_Upgradation/LoRaWAN_End_Node/Middlewares/Third_Party/LoRaWAN/Crypto/soft-se.c:376:30:ComputeCmac	336	static
/home/shafeekpm/Videos/Sep14_AWS_v1.0_NewStack_Upgradation/LoRaWAN_End_Node/Middlewares/Third_Party/LoRaWAN/Crypto/soft-se.c:129:13:PrintKey	80	static
/home/shafeekpm/Videos/Sep14_AWS_v1.0_NewStack_Upgradation/LoRaWAN_End_Node/Middlewares/Third_Party/LoRaWAN/Crypto/soft-se.c:486:23:SecureElementInit	216	static
/home/shafeekpm/Videos/Sep14_AWS_v1.0_NewStack_Upgradation/LoRaWAN_End_Node/Middlewares/Third_Party/LoRaWAN/Crypto/soft-se.c:663:23:SecureElementDeleteDynamicKeys	0	static
/home/shafeekpm/Videos/Sep14_AWS_v1.0_NewStack_Upgradation/LoRaWAN_End_Node/Middlewares/Third_Party/LoRaWAN/Crypto/soft-se.c:727:23:SecureElementSetObjHandler	0	static
/home/shafeekpm/Videos/Sep14_AWS_v1.0_NewStack_Upgradation/LoRaWAN_End_Node/Middlewares/Third_Party/LoRaWAN/Crypto/soft-se.c:875:23:SecureElementComputeAesCmac	16	static
/home/shafeekpm/Videos/Sep14_AWS_v1.0_NewStack_Upgradation/LoRaWAN_End_Node/Middlewares/Third_Party/LoRaWAN/Crypto/soft-se.c:887:23:SecureElementVerifyAesCmac	32	static
/home/shafeekpm/Videos/Sep14_AWS_v1.0_NewStack_Upgradation/LoRaWAN_End_Node/Middlewares/Third_Party/LoRaWAN/Crypto/soft-se.c:956:23:SecureElementAesEncrypt	280	static
/home/shafeekpm/Videos/Sep14_AWS_v1.0_NewStack_Upgradation/LoRaWAN_End_Node/Middlewares/Third_Party/LoRaWAN/Crypto/soft-se.c:745:23:SecureElementSetKey.part.0	40	static
/home/shafeekpm/Videos/Sep14_AWS_v1.0_NewStack_Upgradation/LoRaWAN_End_Node/Middlewares/Third_Party/LoRaWAN/Crypto/soft-se.c:745:23:SecureElementSetKey	8	static
/home/shafeekpm/Videos/Sep14_AWS_v1.0_NewStack_Upgradation/LoRaWAN_End_Node/Middlewares/Third_Party/LoRaWAN/Crypto/soft-se.c:1045:23:SecureElementDeriveAndStoreKey	32	static
/home/shafeekpm/Videos/Sep14_AWS_v1.0_NewStack_Upgradation/LoRaWAN_End_Node/Middlewares/Third_Party/LoRaWAN/Crypto/soft-se.c:1137:23:SecureElementProcessJoinAccept	24	static
/home/shafeekpm/Videos/Sep14_AWS_v1.0_NewStack_Upgradation/LoRaWAN_End_Node/Middlewares/Third_Party/LoRaWAN/Crypto/soft-se.c:1238:23:SecureElementRandomNumber	16	static
/home/shafeekpm/Videos/Sep14_AWS_v1.0_NewStack_Upgradation/LoRaWAN_End_Node/Middlewares/Third_Party/LoRaWAN/Crypto/soft-se.c:1248:23:SecureElementSetDevEui	8	static
/home/shafeekpm/Videos/Sep14_AWS_v1.0_NewStack_Upgradation/LoRaWAN_End_Node/Middlewares/Third_Party/LoRaWAN/Crypto/soft-se.c:1258:10:SecureElementGetDevEui	0	static
/home/shafeekpm/Videos/Sep14_AWS_v1.0_NewStack_Upgradation/LoRaWAN_End_Node/Middlewares/Third_Party/LoRaWAN/Crypto/soft-se.c:1263:23:SecureElementSetJoinEui	8	static
/home/shafeekpm/Videos/Sep14_AWS_v1.0_NewStack_Upgradation/LoRaWAN_End_Node/Middlewares/Third_Party/LoRaWAN/Crypto/soft-se.c:1273:10:SecureElementGetJoinEui	0	static
