/home/shafeekpm/Videos/Sep14_AWS_v1.0_NewStack_Upgradation/LoRaWAN_End_Node/Core/Src/adc_if.c:100:6:SYS_InitMeasurement	0	static
/home/shafeekpm/Videos/Sep14_AWS_v1.0_NewStack_Upgradation/LoRaWAN_End_Node/Core/Src/adc_if.c:111:6:SYS_DeInitMeasurement	0	static
/home/shafeekpm/Videos/Sep14_AWS_v1.0_NewStack_Upgradation/LoRaWAN_End_Node/Core/Src/adc_if.c:169:10:ADC_ReadChannels	24	static
/home/shafeekpm/Videos/Sep14_AWS_v1.0_NewStack_Upgradation/LoRaWAN_End_Node/Core/Src/adc_if.c:139:10:SYS_GetBatteryLevel	8	static
/home/shafeekpm/Videos/Sep14_AWS_v1.0_NewStack_Upgradation/LoRaWAN_End_Node/Core/Src/adc_if.c:118:9:SYS_GetTemperatureLevel	24	static
